{
  "project_info": {
    "project_number": "164745428027",
    "firebase_url": "https://apprecyclefragment.firebaseio.com",
    "project_id": "apprecyclefragment",
    "storage_bucket": "apprecyclefragment.appspot.com"
  },
  "client": [
    {
      "client_info": {
        "mobilesdk_app_id": "1:164745428027:android:332760073922ba7a22b01e",
        "android_client_info": {
          "package_name": "com.example.apprecyclefragment"
        }
      },
      "oauth_client": [
        {
          "client_id": "164745428027-1i6o41uu42hq16v447dd8urdiqkq70ro.apps.googleusercontent.com",
          "client_type": 1,
          "android_info": {
            "package_name": "com.example.apprecyclefragment",
            "certificate_hash": "e81d917d53bcceceb786992b6fa43c0755e25cb3"
          }
        },
        {
          "client_id": "164745428027-rrc35pp9cntjtqf7791nt6hibmnaqh61.apps.googleusercontent.com",
          "client_type": 3
        }
      ],
      "api_key": [
        {
          "current_key": "AIzaSyCG1Jv6tHxk7RBOQ67kkQu4ldOXW-NBag4"
        }
      ],
      "services": {
        "appinvite_service": {
          "other_platform_oauth_client": [
            {
              "client_id": "164745428027-rrc35pp9cntjtqf7791nt6hibmnaqh61.apps.googleusercontent.com",
              "client_type": 3
            }
          ]
        }
      }
    }
  ],
  "configuration_version": "1"
}